Overview
…
query_snp_rsid: Query SNP rs ID. Type: character.

Promoter_histone_marks: Promoter histone marks. Type: factor.

Enhancer_histone_marks: Enhancer histone marks. Type: factor.

Number of rows is not constant, at least equal or more than the number of query SNPs, and depends on r2 parameter choosen in a query (default 0.8). This means that the program outputs not only query SNPs, but also those SNPs that have r2 \(\geq\) 0.8 with the query SNPs.

One or several genetic variants

library(haploR)
x <- queryHaploreg(query=c("rs10048158","rs4791078"))
x

## # A tibble: 33 x 35
##      chr pos_hg38    r2  `D'` is_query_snp rsID  ref   alt     AFR   AMR   ASN
##    <dbl> <chr>    <dbl> <dbl>        <dbl> <chr> <chr> <chr> <dbl> <dbl> <dbl>
##  1    17 66240200  1     1               1 rs10 T     C      0.93  0.66  0.92
##  2    17 66240200  0.82  0.93            0 rs10 T     C      0.93  0.66  0.92
##  3    17 66231972  0.82  0.99            0 rs11 G     T      0.88  0.63  0.9 
##  4    17 66248387  0.99  1               0 rs12 T     C      0.93  0.66  0.92
##  5    17 66248387  0.81  0.92            0 rs12 T     C      0.93  0.66  0.92
##  6    17 66214285  0.98  0.99            0 rs19 G     C      0.86  0.67  0.91
##  7    17 66214285  0.83  0.93            0 rs19 G     C      0.86  0.67  0.91
##  8    17 66240359  0.83  1               0 rs20 A     G      0.64  0.6   0.91
##  9    17 66219777  0.82  0.99            0 rs22 A     G      0.89  0.63  0.89
## 10    17 66219453  0.83  0.93            0 rs22 G     A      0.91  0.67  0.91
## #  with 23 more rows, and 24 more variables: EUR <dbl>, GERP_cons <chr>,
## #   SiPhy_cons <chr>, Chromatin_States <chr>, Chromatin_States_Imputed <chr>,
## #   Chromatin_Marks <chr>, DNAse <chr>, Proteins <chr>, eQTL <chr>, gwas <chr>,
## #   grasp <chr>, Motifs <chr>, GENCODE_id <chr>, GENCODE_name <chr>,
## #   GENCODE_direction <chr>, GENCODE_distance <chr>, RefSeq_id <chr>,
## #   RefSeq_name <chr>, RefSeq_direction <chr>, RefSeq_distance <chr>,
## #   dbSNP_functional_annotation <chr>, query_snp_rsid <chr>,
## #   Promoter_histone_marks <chr>, Enhancer_histone_marks <chr>
…
We can then save the subset.high.LD into an Excel workbook:

require(openxlsx)
write.xlsx(x=subset.high.LD, file="subset.high.LD.xlsx")

This was an example of gathering post-gwas information directly from the online tool. haploR has an additional advantage because it downloads the full information for query retrieved by HaploReg. For example, if you go online and submit these two SNPs to HaploReg (https://pubs.broadinstitute.org/mammals/haploreg/haploreg.php), you will see that some cells of columns “Motifs changed” and “Selected eQTL hits” are hidded (only number of hits are given). haploR retrives this information in a form of a data frame which can be saved into Excel file.

if(length(x)!=0) {
    x[, c("Motifs", "rsID")]
    x[, c("eQTL", "rsID")]
}

## # A tibble: 33 x 2
##    eQTL                                                                rsID     
##    <chr>                                                               <chr>    
##  1 GTEx2015_v6,Heart_Atrial_Appendage,PRKCA,7.3104710229491e-07;GTEx2 rs100481
##  2 GTEx2015_v6,Heart_Atrial_Appendage,PRKCA,7.3104710229491e-07;GTEx2 rs100481
##  3 GTEx2015_v6,Heart_Left_Ventricle,PRKCA,6.18988623085424e-12         rs110796
##  4 GTEx2015_v6,Heart_Atrial_Appendage,PRKCA,7.77998072609731e-06;GTEx rs126039
##  5 GTEx2015_v6,Heart_Atrial_Appendage,PRKCA,7.77998072609731e-06;GTEx rs126039
##  6 GTEx2015_v6,Heart_Left_Ventricle,PRKCA,5.94596439339797e-11         rs1971682
##  7 GTEx2015_v6,Heart_Left_Ventricle,PRKCA,5.94596439339797e-11         rs1971682
##  8 GTEx2015_v6,Heart_Left_Ventricle,PRKCA,4.47516526282854e-12;Koopma rs2013785
##  9 GTEx2015_v6,Heart_Left_Ventricle,PRKCA,2.47655996890797e-09         rs2215414
## 10 GTEx2015_v6,Heart_Left_Ventricle,PRKCA,6.80544182605399e-11         rs2215415
## #  with 23 more rows

Uploading file with variants

If you have a file with your SNPs you would like 
to analyze, you can 
supply it as an input as follows:

library(haploR)
x <- queryHaploreg(file=system.file("extdata/snps.txt", package = "haploR"))
x

## # A tibble: 33 x 35
##      chr pos_hg38    r2  `D'` is_query_snp rsID  ref   alt     AFR   AMR   ASN
##    <dbl> <chr>    <dbl> <dbl>        <dbl> <chr> <chr> <chr> <dbl> <dbl> <dbl>
##  1    17 66240200  1     1               1 rs10 T     C      0.93  0.66  0.92
##  2    17 66240200  0.82  0.93            0 rs10 T     C      0.93  0.66  0.92
##  3    17 66231972  0.82  0.99            0 rs11 G     T      0.88  0.63  0.9 
##  4    17 66248387  0.99  1               0 rs12 T     C      0.93  0.66  0.92
##  5    17 66248387  0.81  0.92            0 rs12 T     C      0.93  0.66  0.92
##  6    17 66214285  0.98  0.99            0 rs19 G     C      0.86  0.67  0.91
##  7    17 66214285  0.83  0.93            0 rs19 G     C      0.86  0.67  0.91
##  8    17 66240359  0.83  1               0 rs20 A     G      0.64  0.6   0.91
##  9    17 66219777  0.82  0.99            0 rs22 A     G      0.89  0.63  0.89
## 10    17 66219453  0.83  0.93            0 rs22 G     A      0.91  0.67  0.91
## #  with 23 more rows, and 24 more variables: EUR <dbl>, GERP_cons <chr>,
## #   SiPhy_cons <chr>, Chromatin_States <chr>, Chromatin_States_Imputed <chr>,
## #   Chromatin_Marks <chr>, DNAse <chr>, Proteins <chr>, eQTL <chr>, gwas <chr>,
## #   grasp <chr>, Motifs <chr>, GENCODE_id <chr>, GENCODE_name <chr>,
## #   GENCODE_direction <chr>, GENCODE_distance <chr>, RefSeq_id <chr>,
## #   RefSeq_name <chr>, RefSeq_direction <chr>, RefSeq_distance <chr>,
## #   dbSNP_functional_annotation <chr>, query_snp_rsid <chr>,
## #   Promoter_histone_marks <chr>, Enhancer_histone_marks <chr>
…
